final_project.sim/sim_1/behav/xsim/transformer_encoder.vcd
$date
   Sat Dec 14 11:01:59 2024
$end
$version
  2023.1
$end
$timescale
  1ps
$end
$scope module transformer_encoder_tb $end
$var reg 1 ! clk $end
$var reg 1 " rst_n $end
$var reg 1 # start $end
$var reg 1 $ done $end
$var reg 1 % data_in_valid $end
$var reg 1 & data_out_valid $end
$var reg 1 ' data_out_ready $end
$var reg 1 ( data_in_ready $end
$var reg 16 ) data_in_serial [15:0] $end
$var reg 16 * data_out_serial [15:0] $end
$var reg 5 + input_idx [4:0] $end
$var reg 5 , output_idx [4:0] $end
$scope module dut $end
$var wire 1 - clk $end
$var wire 1 . rst_n $end
$var wire 1 / start $end
$var wire 1 0 data_in_valid $end
$var reg 1 & data_out_valid $end
$var wire 1 1 data_out_ready $end
$var reg 1 ( data_in_ready $end
$var wire 16 2 data_in_serial [15:0] $end
$var reg 16 * data_out_serial [15:0] $end
$var reg 1 $ done $end
$var reg 6 3 data_io_state [5:0] $end
$var reg 1 4 start_qk $end
$var reg 1 5 start_scale $end
$var reg 1 6 start_softmax $end
$var reg 1 7 start_v $end
$var reg 1 8 qk_done $end
$var reg 1 9 scale_done $end
$var reg 1 : softmax_done $end
$var reg 1 ; v_done $end
$var reg 4 < state $end
$scope module proc_qk $end
$var wire 1 - clk $end
$var wire 1 . rst_n $end
$var wire 1 = start $end
$var wire 2 > proc_mode [1:0] $end
$var reg 1 8 done $end
$var reg 3 ? state $end
$var reg 5 @ idx [4:0] $end
$var reg 1 A all_valid $end
$scope module pe_array[0].pe_inst $end
$var wire 1 - clk $end
$var wire 1 . rst_n $end
$var wire 1 B valid_in $end
$var wire 3 C op_code [2:0] $end
$var wire 16 D data_in_a [15:0] $end
$var wire 16 E data_in_b [15:0] $end
$var wire 16 F acc_in [15:0] $end
$var reg 16 G data_out [63:48] $end
$var reg 1 H valid_out $end
$var reg 1 I acc_valid $end
$var reg 32 J mult_result [31:0] $end
$var reg 16 K acc_reg [15:0] $end
$var reg 16 L stage1_reg [15:0] $end
$var reg 1 M valid_stage1 $end
$var reg 1 N valid_stage2 $end
$var reg 3 O op_code_reg [2:0] $end
$upscope $end
$scope module pe_array[1].pe_inst $end
$var wire 1 - clk $end
$var wire 1 . rst_n $end
$var wire 1 P valid_in $end
$var wire 3 Q op_code [2:0] $end
$var wire 16 R data_in_a [15:0] $end
$var wire 16 S data_in_b [15:0] $end
$var wire 16 T acc_in [15:0] $end
$var reg 16 U data_out [47:32] $end
$var reg 1 V valid_out $end
$var reg 1 W acc_valid $end
$var reg 32 X mult_result [31:0] $end
$var reg 16 Y acc_reg [15:0] $end
$var reg 16 Z stage1_reg [15:0] $end
$var reg 1 [ valid_stage1 $end
$var reg 1 \ valid_stage2 $end
$var reg 3 ] op_code_reg [2:0] $end
$upscope $end
$scope module pe_array[2].pe_inst $end
$var wire 1 - clk $end
$var wire 1 . rst_n $end
$var wire 1 ^ valid_in $end
$var wire 3 _ op_code [2:0] $end
$var wire 16 ` data_in_a [15:0] $end
$var wire 16 a data_in_b [15:0] $end
$var wire 16 b acc_in [15:0] $end
$var reg 16 c data_out [31:16] $end
$var reg 1 d valid_out $end
$var reg 1 e acc_valid $end
$var reg 32 f mult_result [31:0] $end
$var reg 16 g acc_reg [15:0] $end
$var reg 16 h stage1_reg [15:0] $end
$var reg 1 i valid_stage1 $end
$var reg 1 j valid_stage2 $end
$var reg 3 k op_code_reg [2:0] $end
$upscope $end
$scope module pe_array[3].pe_inst $end
$var wire 1 - clk $end
$var wire 1 . rst_n $end
$var wire 1 l valid_in $end
$var wire 3 m op_code [2:0] $end
$var wire 16 n data_in_a [15:0] $end
$var wire 16 o data_in_b [15:0] $end
$var wire 16 p acc_in [15:0] $end
$var reg 16 q data_out [15:0] $end
$var reg 1 r valid_out $end
$var reg 1 s acc_valid $end
$var reg 32 t mult_result [31:0] $end
$var reg 16 u acc_reg [15:0] $end
$var reg 16 v stage1_reg [15:0] $end
$var reg 1 w valid_stage1 $end
$var reg 1 x valid_stage2 $end
$var reg 3 y op_code_reg [2:0] $end
$upscope $end
$scope begin Block78_6 $end
$var reg 32 z j [31:0] $end
$upscope $end
$scope begin Block87_7 $end
$var reg 32 { j [31:0] $end
$upscope $end
$scope begin Block105_8 $end
$var reg 32 | i [31:0] $end
$upscope $end
$scope begin Block130_10 $end
$var reg 32 } i [31:0] $end
$upscope $end
$scope begin Block152_12 $end
$var reg 32 ~ i [31:0] $end
$upscope $end
$scope begin Block178_13 $end
$var reg 32 !! i [31:0] $end
$upscope $end
$scope begin Block196_15 $end
$var reg 32 "! i [31:0] $end
$upscope $end
$upscope $end
$scope module proc_scale $end
$var wire 1 - clk $end
$var wire 1 . rst_n $end
$var wire 1 #! start $end
$var wire 2 $! proc_mode [1:0] $end
$var reg 1 9 done $end
$var reg 3 %! state $end
$var reg 5 &! idx [4:0] $end
$var reg 1 '! all_valid $end
$scope module pe_array[0].pe_inst $end
$var wire 1 - clk $end
$var wire 1 . rst_n $end
$var wire 1 (! valid_in $end
$var wire 3 )! op_code [2:0] $end
$var wire 16 *! data_in_a [15:0] $end
$var wire 16 +! data_in_b [15:0] $end
$var wire 16 ,! acc_in [15:0] $end
$var reg 16 -! data_out [63:48] $end
$var reg 1 .! valid_out $end
$var reg 1 /! acc_valid $end
$var reg 32 0! mult_result [31:0] $end
$var reg 16 1! acc_reg [15:0] $end
$var reg 16 2! stage1_reg [15:0] $end
$var reg 1 3! valid_stage1 $end
$var reg 1 4! valid_stage2 $end
$var reg 3 5! op_code_reg [2:0] $end
$upscope $end
$scope module pe_array[1].pe_inst $end
$var wire 1 - clk $end
$var wire 1 . rst_n $end
$var wire 1 6! valid_in $end
$var wire 3 7! op_code [2:0] $end
$var wire 16 8! data_in_a [15:0] $end
$var wire 16 9! data_in_b [15:0] $end
$var wire 16 :! acc_in [15:0] $end
$var reg 16 ;! data_out [47:32] $end
$var reg 1 <! valid_out $end
$var reg 1 =! acc_valid $end
$var reg 32 >! mult_result [31:0] $end
$var reg 16 ?! acc_reg [15:0] $end
$var reg 16 @! stage1_reg [15:0] $end
$var reg 1 A! valid_stage1 $end
$var reg 1 B! valid_stage2 $end
$var reg 3 C! op_code_reg [2:0] $end
$upscope $end
$scope module pe_array[2].pe_inst $end
$var wire 1 - clk $end
$var wire 1 . rst_n $end
$var wire 1 D! valid_in $end
$var wire 3 E! op_code [2:0] $end
$var wire 16 F! data_in_a [15:0] $end
$var wire 16 G! data_in_b [15:0] $end
$var wire 16 H! acc_in [15:0] $end
$var reg 16 I! data_out [31:16] $end
$var reg 1 J! valid_out $end
$var reg 1 K! acc_valid $end
$var reg 32 L! mult_result [31:0] $end
$var reg 16 M! acc_reg [15:0] $end
$var reg 16 N! stage1_reg [15:0] $end
$var reg 1 O! valid_stage1 $end
$var reg 1 P! valid_stage2 $end
$var reg 3 Q! op_code_reg [2:0] $end
$upscope $end
$scope module pe_array[3].pe_inst $end
$var wire 1 - clk $end
$var wire 1 . rst_n $end
$var wire 1 R! valid_in $end
$var wire 3 S! op_code [2:0] $end
$var wire 16 T! data_in_a [15:0] $end
$var wire 16 U! data_in_b [15:0] $end
$var wire 16 V! acc_in [15:0] $end
$var reg 16 W! data_out [15:0] $end
$var reg 1 X! valid_out $end
$var reg 1 Y! acc_valid $end
$var reg 32 Z! mult_result [31:0] $end
$var reg 16 [! acc_reg [15:0] $end
$var reg 16 \! stage1_reg [15:0] $end
$var reg 1 ]! valid_stage1 $end
$var reg 1 ^! valid_stage2 $end
$var reg 3 _! op_code_reg [2:0] $end
$upscope $end
$scope begin Block78_6 $end
$var reg 32 `! j [31:0] $end
$upscope $end
$scope begin Block87_7 $end
$var reg 32 a! j [31:0] $end
$upscope $end
$scope begin Block105_8 $end
$var reg 32 b! i [31:0] $end
$upscope $end
$scope begin Block130_10 $end
$var reg 32 c! i [31:0] $end
$upscope $end
$scope begin Block152_12 $end
$var reg 32 d! i [31:0] $end
$upscope $end
$scope begin Block178_13 $end
$var reg 32 e! i [31:0] $end
$upscope $end
$scope begin Block196_15 $end
$var reg 32 f! i [31:0] $end
$upscope $end
$upscope $end
$scope module proc_softmax $end
$var wire 1 - clk $end
$var wire 1 . rst_n $end
$var wire 1 g! start $end
$var wire 2 h! proc_mode [1:0] $end
$var reg 1 : done $end
$var reg 3 i! state $end
$var reg 5 j! idx [4:0] $end
$var reg 1 k! all_valid $end
$scope module pe_array[0].pe_inst $end
$var wire 1 - clk $end
$var wire 1 . rst_n $end
$var wire 1 l! valid_in $end
$var wire 3 m! op_code [2:0] $end
$var wire 16 n! data_in_a [15:0] $end
$var wire 16 o! data_in_b [15:0] $end
$var wire 16 p! acc_in [15:0] $end
$var reg 16 q! data_out [63:48] $end
$var reg 1 r! valid_out $end
$var reg 1 s! acc_valid $end
$var reg 32 t! mult_result [31:0] $end
$var reg 16 u! acc_reg [15:0] $end
$var reg 16 v! stage1_reg [15:0] $end
$var reg 1 w! valid_stage1 $end
$var reg 1 x! valid_stage2 $end
$var reg 3 y! op_code_reg [2:0] $end
$upscope $end
$scope module pe_array[1].pe_inst $end
$var wire 1 - clk $end
$var wire 1 . rst_n $end
$var wire 1 z! valid_in $end
$var wire 3 {! op_code [2:0] $end
$var wire 16 |! data_in_a [15:0] $end
$var wire 16 }! data_in_b [15:0] $end
$var wire 16 ~! acc_in [15:0] $end
$var reg 16 !" data_out [47:32] $end
$var reg 1 "" valid_out $end
$var reg 1 #" acc_valid $end
$var reg 32 $" mult_result [31:0] $end
$var reg 16 %" acc_reg [15:0] $end
$var reg 16 &" stage1_reg [15:0] $end
$var reg 1 '" valid_stage1 $end
$var reg 1 (" valid_stage2 $end
$var reg 3 )" op_code_reg [2:0] $end
$upscope $end
$scope module pe_array[2].pe_inst $end
$var wire 1 - clk $end
$var wire 1 . rst_n $end
$var wire 1 *" valid_in $end
$var wire 3 +" op_code [2:0] $end
$var wire 16 ," data_in_a [15:0] $end
$var wire 16 -" data_in_b [15:0] $end
$var wire 16 ." acc_in [15:0] $end
$var reg 16 /" data_out [31:16] $end
$var reg 1 0" valid_out $end
$var reg 1 1" acc_valid $end
$var reg 32 2" mult_result [31:0] $end
$var reg 16 3" acc_reg [15:0] $end
$var reg 16 4" stage1_reg [15:0] $end
$var reg 1 5" valid_stage1 $end
$var reg 1 6" valid_stage2 $end
$var reg 3 7" op_code_reg [2:0] $end
$upscope $end
$scope module pe_array[3].pe_inst $end
$var wire 1 - clk $end
$var wire 1 . rst_n $end
$var wire 1 8" valid_in $end
$var wire 3 9" op_code [2:0] $end
$var wire 16 :" data_in_a [15:0] $end
$var wire 16 ;" data_in_b [15:0] $end
$var wire 16 <" acc_in [15:0] $end
$var reg 16 =" data_out [15:0] $end
$var reg 1 >" valid_out $end
$var reg 1 ?" acc_valid $end
$var reg 32 @" mult_result [31:0] $end
$var reg 16 A" acc_reg [15:0] $end
$var reg 16 B" stage1_reg [15:0] $end
$var reg 1 C" valid_stage1 $end
$var reg 1 D" valid_stage2 $end
$var reg 3 E" op_code_reg [2:0] $end
$upscope $end
$scope begin Block78_6 $end
$var reg 32 F" j [31:0] $end
$upscope $end
$scope begin Block87_7 $end
$var reg 32 G" j [31:0] $end
$upscope $end
$scope begin Block105_8 $end
$var reg 32 H" i [31:0] $end
$upscope $end
$scope begin Block130_10 $end
$var reg 32 I" i [31:0] $end
$upscope $end
$scope begin Block152_12 $end
$var reg 32 J" i [31:0] $end
$upscope $end
$scope begin Block178_13 $end
$var reg 32 K" i [31:0] $end
$upscope $end
$scope begin Block196_15 $end
$var reg 32 L" i [31:0] $end
$upscope $end
$upscope $end
$scope module proc_v $end
$var wire 1 - clk $end
$var wire 1 . rst_n $end
$var wire 1 M" start $end
$var wire 2 N" proc_mode [1:0] $end
$var reg 1 ; done $end
$var reg 3 O" state $end
$var reg 5 P" idx [4:0] $end
$var reg 1 Q" all_valid $end
$scope module pe_array[0].pe_inst $end
$var wire 1 - clk $end
$var wire 1 . rst_n $end
$var wire 1 R" valid_in $end
$var wire 3 S" op_code [2:0] $end
$var wire 16 T" data_in_a [15:0] $end
$var wire 16 U" data_in_b [15:0] $end
$var wire 16 V" acc_in [15:0] $end
$var reg 16 W" data_out [63:48] $end
$var reg 1 X" valid_out $end
$var reg 1 Y" acc_valid $end
$var reg 32 Z" mult_result [31:0] $end
$var reg 16 [" acc_reg [15:0] $end
$var reg 16 \" stage1_reg [15:0] $end
$var reg 1 ]" valid_stage1 $end
$var reg 1 ^" valid_stage2 $end
$var reg 3 _" op_code_reg [2:0] $end
$upscope $end
$scope module pe_array[1].pe_inst $end
$var wire 1 - clk $end
$var wire 1 . rst_n $end
$var wire 1 `" valid_in $end
$var wire 3 a" op_code [2:0] $end
$var wire 16 b" data_in_a [15:0] $end
$var wire 16 c" data_in_b [15:0] $end
$var wire 16 d" acc_in [15:0] $end
$var reg 16 e" data_out [47:32] $end
$var reg 1 f" valid_out $end
$var reg 1 g" acc_valid $end
$var reg 32 h" mult_result [31:0] $end
$var reg 16 i" acc_reg [15:0] $end
$var reg 16 j" stage1_reg [15:0] $end
$var reg 1 k" valid_stage1 $end
$var reg 1 l" valid_stage2 $end
$var reg 3 m" op_code_reg [2:0] $end
$upscope $end
$scope module pe_array[2].pe_inst $end
$var wire 1 - clk $end
$var wire 1 . rst_n $end
$var wire 1 n" valid_in $end
$var wire 3 o" op_code [2:0] $end
$var wire 16 p" data_in_a [15:0] $end
$var wire 16 q" data_in_b [15:0] $end
$var wire 16 r" acc_in [15:0] $end
$var reg 16 s" data_out [31:16] $end
$var reg 1 t" valid_out $end
$var reg 1 u" acc_valid $end
$var reg 32 v" mult_result [31:0] $end
$var reg 16 w" acc_reg [15:0] $end
$var reg 16 x" stage1_reg [15:0] $end
$var reg 1 y" valid_stage1 $end
$var reg 1 z" valid_stage2 $end
$var reg 3 {" op_code_reg [2:0] $end
$upscope $end
$scope module pe_array[3].pe_inst $end
$var wire 1 - clk $end
$var wire 1 . rst_n $end
$var wire 1 |" valid_in $end
$var wire 3 }" op_code [2:0] $end
$var wire 16 ~" data_in_a [15:0] $end
$var wire 16 !# data_in_b [15:0] $end
$var wire 16 "# acc_in [15:0] $end
$var reg 16 ## data_out [15:0] $end
$var reg 1 $# valid_out $end
$var reg 1 %# acc_valid $end
$var reg 32 &# mult_result [31:0] $end
$var reg 16 '# acc_reg [15:0] $end
$var reg 16 (# stage1_reg [15:0] $end
$var reg 1 )# valid_stage1 $end
$var reg 1 *# valid_stage2 $end
$var reg 3 +# op_code_reg [2:0] $end
$upscope $end
$scope begin Block78_6 $end
$var reg 32 ,# j [31:0] $end
$upscope $end
$scope begin Block87_7 $end
$var reg 32 -# j [31:0] $end
$upscope $end
$scope begin Block105_8 $end
$var reg 32 .# i [31:0] $end
$upscope $end
$scope begin Block130_10 $end
$var reg 32 /# i [31:0] $end
$upscope $end
$scope begin Block152_12 $end
$var reg 32 0# i [31:0] $end
$upscope $end
$scope begin Block178_13 $end
$var reg 32 1# i [31:0] $end
$upscope $end
$scope begin Block196_15 $end
$var reg 32 2# i [31:0] $end
$upscope $end
$upscope $end
$scope begin Block130_32 $end
$var reg 32 3# i [31:0] $end
$upscope $end
$scope begin Block159_33 $end
$var reg 32 4# i [31:0] $end
$upscope $end
$upscope $end
$scope begin Block147_35 $end
$var reg 32 5# i [31:0] $end
$upscope $end
$scope function display_matrix $end
$var reg 32 6# i [31:0] $end
$var real 32 7# fixed_point_val $end
$upscope $end
$upscope $end
$enddefinitions $end
#0
$dumpvars
0!
b0 !!
b0 !"
b0 !#
0"
b0 "!
0""
b0 "#
0#
0#!
0#"
b0 ##
0$
b1 $!
b0 $"
0$#
0%
b0 %!
b0 %"
0%#
0&
b0 &!
b0 &"
b0 &#
0'
0'!
0'"
b0 '#
1(
0(!
0("
b0 (#
b0 )
b0 )!
b0 )"
0)#
b0 *
b0 *!
0*"
0*#
b0 +
b0 +!
b0 +"
b0 +#
b0 ,
b0 ,!
b0 ,"
b100 ,#
0-
b0 -!
b0 -"
b10000 -#
0.
0.!
b0 ."
b0 .#
0/
0/!
b0 /"
b0 /#
00
b0 0!
00"
b0 0#
01
b0 1!
01"
b0 1#
b0 2
b0 2!
b0 2"
b0 2#
b0 3
03!
b0 3"
b10000 3#
04
04!
b0 4"
b0 4#
05
b0 5!
05"
b0 5#
06
06!
06"
b0 6#
07
b0 7!
b0 7"
r0 7#
08
b0 8!
08"
09
b0 9!
b0 9"
0:
b0 :!
b0 :"
0;
b0 ;!
b0 ;"
b0 <
0<!
b0 <"
0=
0=!
b0 ="
b0 >
b0 >!
0>"
b0 ?
b0 ?!
0?"
b0 @
b0 @!
b0 @"
0A
0A!
b0 A"
0B
0B!
b0 B"
b0 C
b0 C!
0C"
b0 D
0D!
0D"
b0 E
b0 E!
b0 E"
b0 F
b0 F!
b100 F"
b0 G
b0 G!
b10000 G"
0H
b0 H!
b0 H"
0I
b0 I!
b0 I"
b0 J
0J!
b0 J"
b0 K
0K!
b0 K"
b0 L
b0 L!
b0 L"
0M
b0 M!
0M"
0N
b0 N!
b11 N"
b0 O
0O!
b0 O"
0P
0P!
b0 P"
b0 Q
b0 Q!
0Q"
b0 R
0R!
0R"
b0 S
b0 S!
b0 S"
b0 T
b0 T!
b0 T"
b0 U
b0 U!
b0 U"
0V
b0 V!
b0 V"
0W
b0 W!
b0 W"
b0 X
0X!
0X"
b0 Y
0Y!
0Y"
b0 Z
b0 Z!
b0 Z"
0[
b0 [!
b0 ["
0\
b0 \!
b0 \"
b0 ]
0]!
0]"
0^
0^!
0^"
b0 _
b0 _!
b0 _"
b0 `
b100 `!
0`"
b0 a
b10000 a!
b0 a"
b0 b
b0 b!
b0 b"
b0 c
b0 c!
b0 c"
0d
b0 d!
b0 d"
0e
b0 e!
b0 e"
b0 f
b0 f!
0f"
b0 g
0g!
0g"
b0 h
b10 h!
b0 h"
0i
b0 i!
b0 i"
0j
b0 j!
b0 j"
b0 k
0k!
0k"
0l
0l!
0l"
b0 m
b0 m!
b0 m"
b0 n
b0 n!
0n"
b0 o
b0 o!
b0 o"
b0 p
b0 p!
b0 p"
b0 q
b0 q!
b0 q"
0r
0r!
b0 r"
0s
0s!
b0 s"
b0 t
b0 t!
0t"
b0 u
b0 u!
0u"
b0 v
b0 v!
b0 v"
0w
0w!
b0 w"
0x
0x!
b0 x"
b0 y
b0 y!
0y"
b100 z
0z!
0z"
b10000 {
b0 {!
b0 {"
b0 |
b0 |!
0|"
b0 }
b0 }!
b0 }"
b0 ~
b0 ~!
b0 ~"
$end
#5000
1!
b100 ,#
1-
b10000 -#
b10000 3#
b100 F"
b10000 G"
b100 `!
b10000 a!
b100 z
b10000 {
#10000
0!
0-
#15000
1!
b100 ,#
1-
b10000 -#
b10000 3#
b100 F"
b10000 G"
b100 `!
b10000 a!
b100 z
b10000 {
#20000
0!
1"
0-
1.
#25000
1!
1-
#30000
0!
1#
0-
1/
b10000 6#
r16 7#
#35000
1!
1-
b1 <
#40000
0!
0#
0-
0/
#45000
1!
1%
b100000000 )
b1 +
1-
10
b100000000 2
b1 3
#50000
0!
0-
#55000
1!
b1000000000 )
b10 +
1-
b1000000000 2
b10 3
#60000
0!
0-
#65000
1!
b1100000000 )
b11 +
1-
b1100000000 2
b11 3
#70000
0!
0-
#75000
1!
b10000000000 )
b100 +
1-
b10000000000 2
b100 3
#80000
0!
0-
#85000
1!
b10100000000 )
b101 +
1-
b10100000000 2
b101 3
#90000
0!
0-
#95000
1!
b11000000000 )
b110 +
1-
b11000000000 2
b110 3
#100000
0!
0-
#105000
1!
b11100000000 )
b111 +
1-
b11100000000 2
b111 3
#110000
0!
0-
#115000
1!
b100000000000 )
b1000 +
1-
b100000000000 2
b1000 3
#120000
0!
0-
#125000
1!
b100100000000 )
b1001 +
1-
b100100000000 2
b1001 3
#130000
0!
0-
#135000
1!
b101000000000 )
b1010 +
1-
b101000000000 2
b1010 3
#140000
0!
0-
#145000
1!
b101100000000 )
b1011 +
1-
b101100000000 2
b1011 3
#150000
0!
0-
#155000
1!
b110000000000 )
b1100 +
1-
b110000000000 2
b1100 3
#160000
0!
0-
#165000
1!
b110100000000 )
b1101 +
1-
b110100000000 2
b1101 3
#170000
0!
0-
#175000
1!
b111000000000 )
b1110 +
1-
b111000000000 2
b1110 3
#180000
0!
0-
#185000
1!
b111100000000 )
b1111 +
1-
b111100000000 2
b1111 3
#190000
0!
0-
#195000
1!
b1000000000000 )
b10000 +
1-
b1000000000000 2
b10000 3
#200000
0!
0-
#205000
1!
0%
0(
bx )
b10001 +
1-
00
bx 2
b0 3
b10 <
#210000
0!
0-
#215000
1!
1-
b10000 4#
b11 <
#220000
0!
0-
#225000
1!
1-
14
b100 <
1=
#230000
0!
0-
#235000
1!
1-
04
0=
b1 ?
#240000
0!
0-
#245000
1!
1-
b10 ?
1B
b1000000 D
b1000000 E
1P
b10000000 R
b10000000 S
1^
b11000000 `
b11000000 a
1l
b100000000 n
b100000000 o
b100 }
#250000
0!
0-
#255000
1!
1-
b11 ?
0B
b1000000000000 J
1M
0P
b100000000000000 X
1[
0^
b1001000000000000 f
1i
0l
b10000000000000000 t
1w
b100 ~
#260000
0!
0-
#265000
1!
1-
1A
b10000 G
1H
0M
1N
b1000000 U
1V
0[
1\
b10010000 c
1d
0i
1j
b100000000 q
1r
0w
1x
#270000
0!
0-
#275000
1!
1-
b100 ?
0A
0H
0N
0V
0\
0d
0j
0r
0x
#280000
0!
0-
#285000
1!
b100 !!
1-
b1 ?
b100 @
#290000
0!
0-
#295000
1!
1-
b10 ?
1B
b101000000 D
b101000000 E
1P
b110000000 R
b110000000 S
1^
b111000000 `
b111000000 a
1l
b1000000000 n
b1000000000 o
b100 }
#300000
0!
0-
#305000
1!
1-
b11 ?
0B
b11001000000000000 J
1M
0P
b100100000000000000 X
1[
0^
b110001000000000000 f
1i
0l
b1000000000000000000 t
1w
b100 ~
#310000
0!
0-
#315000
1!
1-
1A
b110010000 G
1H
0M
1N
b1001000000 U
1V
0[
1\
b1100010000 c
1d
0i
1j
b10000000000 q
1r
0w
1x
#320000
0!
0-
#325000
1!
1-
b100 ?
0A
0H
0N
0V
0\
0d
0j
0r
0x
#330000
0!
0-
#335000
1!
b100 !!
1-
b1 ?
b1000 @
#340000
0!
0-
#345000
1!
1-
b10 ?
1B
b1001000000 D
b1001000000 E
1P
b1010000000 R
b1010000000 S
1^
b1011000000 `
b1011000000 a
1l
b1100000000 n
b1100000000 o
b100 }
#350000
0!
0-
#355000
1!
1-
b11 ?
0B
b1010001000000000000 J
1M
0P
b1100100000000000000 X
1[
0^
b1111001000000000000 f
1i
0l
b10010000000000000000 t
1w
b100 ~
#360000
0!
0-
#365000
1!
1-
1A
b10100010000 G
1H
0M
1N
b11001000000 U
1V
0[
1\
b11110010000 c
1d
0i
1j
b100100000000 q
1r
0w
1x
#370000
0!
0-
#375000
1!
1-
b100 ?
0A
0H
0N
0V
0\
0d
0j
0r
0x
#380000
0!
0-
#385000
1!
b100 !!
1-
b1 ?
b1100 @
#390000
0!
0-
#395000
1!
1-
b10 ?
1B
b1101000000 D
b1101000000 E
1P
b1110000000 R
b1110000000 S
1^
b1111000000 `
b1111000000 a
1l
b10000000000 n
b10000000000 o
b100 }
#400000
0!
0-
#405000
1!
1-
b11 ?
0B
b10101001000000000000 J
1M
0P
b11000100000000000000 X
1[
0^
b11100001000000000000 f
1i
0l
b100000000000000000000 t
1w
b100 ~
#410000
0!
0-
#415000
1!
1-
1A
b101010010000 G
1H
0M
1N
b110001000000 U
1V
0[
1\
b111000010000 c
1d
0i
1j
b1000000000000 q
1r
0w
1x
#420000
0!
0-
#425000
1!
1-
b100 ?
0A
0H
0N
0V
0\
0d
0j
0r
0x
#430000
0!
0-
#435000
1!
b100 !!
1-
b101 ?
b10000 @
#440000
0!
0-
#445000
1!
b10000 "!
1-
18
b0 ?
#450000
0!
0-
#455000
1!
1-
b101 <
#460000
0!
0-
#465000
1!
1#!
1-
15
b110 <
#470000
0!
0-
#475000
1!
0#!
b1 %!
1-
05
#480000
0!
0-
#485000
1!
b10 %!
1(!
b10 )!
b10000 *!
bz +!
1-
16!
b10 7!
b1000000 8!
bz 9!
1D!
b10 E!
b10010000 F!
bz G!
1R!
b10 S!
b100000000 T!
bz U!
b100 c!
#490000
0!
0-
#495000
1!
b11 %!
0(!
1-
b10000000000 0!
13!
b10 5!
06!
b1000000000000 >!
1A!
b10 C!
0D!
b10010000000000 L!
1O!
b10 Q!
0R!
b100000000000000 Z!
1]!
b10 _!
b100 d!
#500000
0!
0-
#505000
1!
1'!
1-
b100 -!
1.!
03!
14!
b10000 ;!
1<!
0A!
1B!
b100100 I!
1J!
0O!
1P!
b1000000 W!
1X!
0]!
1^!
#510000
0!
0-
#515000
1!
b100 %!
0'!
1-
0.!
04!
0<!
0B!
0J!
0P!
0X!
0^!
#520000
0!
0-
#525000
1!
b1 %!
b100 &!
1-
b100 e!
#530000
0!
0-
#535000
1!
b10 %!
1(!
b110010000 *!
1-
16!
b1001000000 8!
1D!
b1100010000 F!
1R!
b10000000000 T!
b100 c!
#540000
0!
0-
#545000
1!
b11 %!
0(!
1-
b110010000000000 0!
13!
06!
b1001000000000000 >!
1A!
0D!
b1100010000000000 L!
1O!
0R!
b10000000000000000 Z!
1]!
b100 d!
#550000
0!
0-
#555000
1!
1'!
1-
b1100100 -!
1.!
03!
14!
b10010000 ;!
1<!
0A!
1B!
b11000100 I!
1J!
0O!
1P!
b100000000 W!
1X!
0]!
1^!
#560000
0!
0-
#565000
1!
b100 %!
0'!
1-
0.!
04!
0<!
0B!
0J!
0P!
0X!
0^!
#570000
0!
0-
#575000
1!
b1 %!
b1000 &!
1-
b100 e!
#580000
0!
0-
#585000
1!
b10 %!
1(!
b10100010000 *!
1-
16!
b11001000000 8!
1D!
b11110010000 F!
1R!
b100100000000 T!
b100 c!
#590000
0!
0-
#595000
1!
b11 %!
0(!
1-
b10100010000000000 0!
13!
06!
b11001000000000000 >!
1A!
0D!
b11110010000000000 L!
1O!
0R!
b100100000000000000 Z!
1]!
b100 d!
#600000
0!
0-
#605000
1!
1'!
1-
b101000100 -!
1.!
03!
14!
b110010000 ;!
1<!
0A!
1B!
b111100100 I!
1J!
0O!
1P!
b1001000000 W!
1X!
0]!
1^!
#610000
0!
0-
#615000
1!
b100 %!
0'!
1-
0.!
04!
0<!
0B!
0J!
0P!
0X!
0^!
#620000
0!
0-
#625000
1!
b1 %!
b1100 &!
1-
b100 e!
#630000
0!
0-
#635000
1!
b10 %!
1(!
b101010010000 *!
1-
16!
b110001000000 8!
1D!
b111000010000 F!
1R!
b1000000000000 T!
b100 c!
#640000
0!
0-
#645000
1!
b11 %!
0(!
1-
b101010010000000000 0!
13!
06!
b110001000000000000 >!
1A!
0D!
b111000010000000000 L!
1O!
0R!
b1000000000000000000 Z!
1]!
b100 d!
#650000
0!
0-
#655000
1!
1'!
1-
b1010100100 -!
1.!
03!
14!
b1100010000 ;!
1<!
0A!
1B!
b1110000100 I!
1J!
0O!
1P!
b10000000000 W!
1X!
0]!
1^!
#660000
0!
0-
#665000
1!
b100 %!
0'!
1-
0.!
04!
0<!
0B!
0J!
0P!
0X!
0^!
#670000
0!
0-
#675000
1!
b101 %!
b10000 &!
1-
b100 e!
#680000
0!
0-
#685000
1!
b0 %!
1-
19
b10000 f!
#690000
0!
0-
#695000
1!
1-
b111 <
#700000
0!
0-
#705000
1!
1-
16
b1000 <
1g!
#710000
0!
0-
#715000
1!
1-
06
0g!
b1 i!
#720000
0!
0-
#725000
1!
1*"
b11 +"
b100100 ,"
1-
bz -"
18"
b11 9"
b1000000 :"
bz ;"
b100 I"
b10 i!
1l!
b11 m!
b100 n!
bz o!
1z!
b11 {!
b10000 |!
bz }!
#730000
0!
0-
#735000
1!
1'"
b11 )"
0*"
1-
15"
b11 7"
08"
1C"
b11 E"
b100 J"
b11 i!
0l!
1w!
b11 y!
0z!
#740000
0!
0-
#745000
1!
b10000 !"
1""
0'"
1("
1-
b100100 /"
10"
05"
16"
b1000000 ="
1>"
0C"
1D"
1k!
b100 q!
1r!
0w!
1x!
#750000
0!
0-
#755000
1!
0""
0("
1-
00"
06"
0>"
0D"
b100 i!
0k!
0r!
0x!
#760000
0!
0-
#765000
1!
1-
b100 K"
b1 i!
b100 j!
#770000
0!
0-
#775000
1!
1*"
b11000100 ,"
1-
18"
b100000000 :"
b100 I"
b10 i!
1l!
b1100100 n!
1z!
b10010000 |!
#780000
0!
0-
#785000
1!
1'"
0*"
1-
15"
08"
1C"
b100 J"
b11 i!
0l!
1w!
0z!
#790000
0!
0-
#795000
1!
b10010000 !"
1""
0'"
1("
1-
b11000100 /"
10"
05"
16"
b100000000 ="
1>"
0C"
1D"
1k!
b1100100 q!
1r!
0w!
1x!
#800000
0!
0-
#805000
1!
0""
0("
1-
00"
06"
0>"
0D"
b100 i!
0k!
0r!
0x!
#810000
0!
0-
#815000
1!
1-
b100 K"
b1 i!
b1000 j!
#820000
0!
0-
#825000
1!
1*"
b111100100 ,"
1-
18"
b1001000000 :"
b100 I"
b10 i!
1l!
b101000100 n!
1z!
b110010000 |!
#830000
0!
0-
#835000
1!
1'"
0*"
1-
15"
08"
1C"
b100 J"
b11 i!
0l!
1w!
0z!
#840000
0!
0-
#845000
1!
b110010000 !"
1""
0'"
1("
1-
b111100100 /"
10"
05"
16"
b1001000000 ="
1>"
0C"
1D"
1k!
b101000100 q!
1r!
0w!
1x!
#850000
0!
0-
#855000
1!
0""
0("
1-
00"
06"
0>"
0D"
b100 i!
0k!
0r!
0x!
#860000
0!
0-
#865000
1!
1-
b100 K"
b1 i!
b1100 j!
#870000
0!
0-
