final_project.sim/sim_3/behav/xsim/processor_tb.vcd
$date
   Sat Dec 14 13:23:46 2024
$end
$version
  2023.1
$end
$timescale
  1ps
$end
$scope module processor_tb $end
$var reg 1 ! clk $end
$var reg 1 " rst_n $end
$var reg 1 # start $end
$var reg 2 $ proc_mode [1:0] $end
$var reg 1 % done $end
$scope module dut $end
$var wire 1 & clk $end
$var wire 1 ' rst_n $end
$var wire 1 ( start $end
$var wire 2 ) proc_mode [1:0] $end
$var reg 1 % done $end
$var reg 3 * state $end
$var reg 5 + idx [4:0] $end
$var reg 1 , all_valid $end
$scope module pe_array[0].pe_inst $end
$var wire 1 & clk $end
$var wire 1 ' rst_n $end
$var wire 1 - valid_in $end
$var wire 3 . op_code [2:0] $end
$var wire 16 / data_in_a [15:0] $end
$var wire 16 0 data_in_b [15:0] $end
$var wire 16 1 acc_in [15:0] $end
$var reg 16 2 data_out [63:48] $end
$var reg 1 3 valid_out $end
$var reg 1 4 acc_valid $end
$var reg 32 5 mult_result [31:0] $end
$var reg 16 6 acc_reg [15:0] $end
$var reg 16 7 stage1_reg [15:0] $end
$var reg 1 8 valid_stage1 $end
$var reg 1 9 valid_stage2 $end
$var reg 3 : op_code_reg [2:0] $end
$upscope $end
$scope module pe_array[1].pe_inst $end
$var wire 1 & clk $end
$var wire 1 ' rst_n $end
$var wire 1 ; valid_in $end
$var wire 3 < op_code [2:0] $end
$var wire 16 = data_in_a [15:0] $end
$var wire 16 > data_in_b [15:0] $end
$var wire 16 ? acc_in [15:0] $end
$var reg 16 @ data_out [47:32] $end
$var reg 1 A valid_out $end
$var reg 1 B acc_valid $end
$var reg 32 C mult_result [31:0] $end
$var reg 16 D acc_reg [15:0] $end
$var reg 16 E stage1_reg [15:0] $end
$var reg 1 F valid_stage1 $end
$var reg 1 G valid_stage2 $end
$var reg 3 H op_code_reg [2:0] $end
$upscope $end
$scope module pe_array[2].pe_inst $end
$var wire 1 & clk $end
$var wire 1 ' rst_n $end
$var wire 1 I valid_in $end
$var wire 3 J op_code [2:0] $end
$var wire 16 K data_in_a [15:0] $end
$var wire 16 L data_in_b [15:0] $end
$var wire 16 M acc_in [15:0] $end
$var reg 16 N data_out [31:16] $end
$var reg 1 O valid_out $end
$var reg 1 P acc_valid $end
$var reg 32 Q mult_result [31:0] $end
$var reg 16 R acc_reg [15:0] $end
$var reg 16 S stage1_reg [15:0] $end
$var reg 1 T valid_stage1 $end
$var reg 1 U valid_stage2 $end
$var reg 3 V op_code_reg [2:0] $end
$upscope $end
$scope module pe_array[3].pe_inst $end
$var wire 1 & clk $end
$var wire 1 ' rst_n $end
$var wire 1 W valid_in $end
$var wire 3 X op_code [2:0] $end
$var wire 16 Y data_in_a [15:0] $end
$var wire 16 Z data_in_b [15:0] $end
$var wire 16 [ acc_in [15:0] $end
$var reg 16 \ data_out [15:0] $end
$var reg 1 ] valid_out $end
$var reg 1 ^ acc_valid $end
$var reg 32 _ mult_result [31:0] $end
$var reg 16 ` acc_reg [15:0] $end
$var reg 16 a stage1_reg [15:0] $end
$var reg 1 b valid_stage1 $end
$var reg 1 c valid_stage2 $end
$var reg 3 d op_code_reg [2:0] $end
$upscope $end
$scope begin Block78_5 $end
$var reg 32 e j [31:0] $end
$upscope $end
$scope begin Block87_6 $end
$var reg 32 f j [31:0] $end
$upscope $end
$scope begin Block105_7 $end
$var reg 32 g i [31:0] $end
$upscope $end
$scope begin Block130_9 $end
$var reg 32 h i [31:0] $end
$upscope $end
$scope begin Block152_11 $end
$var reg 32 i i [31:0] $end
$upscope $end
$scope begin Block178_12 $end
$var reg 32 j i [31:0] $end
$upscope $end
$scope begin Block196_14 $end
$var reg 32 k i [31:0] $end
$upscope $end
$upscope $end
$scope task initialize_inputs $end
$scope begin Block46_16 $end
$var reg 32 l i [31:0] $end
$upscope $end
$upscope $end
$scope task reset_system $end
$upscope $end
$scope task wait_for_done $end
$upscope $end
$scope function check_multiply_results $end
$var reg 32 m i [31:0] $end
$upscope $end
$scope function check_accumulation_results $end
$var reg 32 n i [31:0] $end
$upscope $end
$upscope $end
$enddefinitions $end
#0
$dumpvars
0!
0"
0#
b0 $
0%
0&
0'
0(
b0 )
b0 *
b0 +
0,
0-
b0 .
b0 /
b0 0
b0 1
b0 2
03
04
b0 5
b0 6
b0 7
08
09
b0 :
0;
b0 <
b0 =
b0 >
b0 ?
b0 @
0A
0B
b0 C
b0 D
b0 E
0F
0G
b0 H
0I
b0 J
b0 K
b0 L
b0 M
b0 N
0O
0P
b0 Q
b0 R
b0 S
0T
0U
b0 V
0W
b0 X
b0 Y
b0 Z
b0 [
b0 \
0]
0^
b0 _
b0 `
b0 a
0b
0c
b0 d
b100 e
b10000 f
b0 g
b0 h
b0 i
b0 j
b0 k
b10000 l
b0 m
b0 n
$end
#5000
1!
1&
b100 e
b10000 f
#10000
0!
0&
#15000
1!
1&
b100 e
b10000 f
#20000
0!
1"
0&
1'
#25000
1!
1&
#30000
0!
1#
0&
1(
#35000
1!
1&
b1 *
#40000
0!
0&
#45000
1!
1&
b10 *
1-
b100000000 /
b100000000 0
1;
b100000000 =
b100000000 >
1I
b100000000 K
b100000000 L
1W
b100000000 Y
b100000000 Z
b100 h
#50000
0!
0#
0&
0(
#55000
1!
1&
b11 *
0-
b10000000000000000 5
18
0;
b10000000000000000 C
1F
0I
b10000000000000000 Q
1T
0W
b10000000000000000 _
1b
b100 i
#60000
0!
0&
#65000
1!
1&
1,
b100000000 2
13
08
19
b100000000 @
1A
0F
1G
b100000000 N
1O
0T
1U
b100000000 \
1]
0b
1c
#70000
0!
0&
#75000
1!
1&
b100 *
0,
03
09
0A
0G
0O
0U
0]
0c
#80000
0!
0&
#85000
1!
1&
b1 *
b100 +
b100 j
#90000
0!
0&
#95000
1!
1&
b10 *
1-
1;
1I
1W
b100 h
#100000
0!
0&
#105000
1!
1&
b11 *
0-
18
0;
1F
0I
1T
0W
1b
b100 i
#110000
0!
0&
#115000
1!
1&
1,
13
08
19
1A
0F
1G
1O
0T
1U
1]
0b
1c
#120000
0!
0&
#125000
1!
1&
b100 *
0,
03
09
0A
0G
0O
0U
0]
0c
#130000
0!
0&
#135000
1!
1&
b1 *
b1000 +
b100 j
#140000
0!
0&
#145000
1!
1&
b10 *
1-
1;
1I
1W
b100 h
#150000
0!
0&
#155000
1!
1&
b11 *
0-
18
0;
1F
0I
1T
0W
1b
b100 i
#160000
0!
0&
#165000
1!
1&
1,
13
08
19
1A
0F
1G
1O
0T
1U
1]
0b
1c
#170000
0!
0&
#175000
1!
1&
b100 *
0,
03
09
0A
0G
0O
0U
0]
0c
#180000
0!
0&
#185000
1!
1&
b1 *
b1100 +
b100 j
#190000
0!
0&
#195000
1!
1&
b10 *
1-
1;
1I
1W
b100 h
#200000
0!
0&
#205000
1!
1&
b11 *
0-
18
0;
1F
0I
1T
0W
1b
b100 i
#210000
0!
0&
#215000
1!
1&
1,
13
08
19
1A
0F
1G
1O
0T
1U
1]
0b
1c
#220000
0!
0&
#225000
1!
1&
b100 *
0,
03
09
0A
0G
0O
0U
0]
0c
#230000
0!
0&
#235000
1!
1&
b101 *
b10000 +
b100 j
#240000
0!
0&
#245000
1!
1%
1&
b0 *
b10000 k
#250000
0!
0&
#255000
1!
1&
#260000
0!
0&
#265000
1!
1#
b11 $
0%
1&
1(
b11 )
b1 *
b0 +
b10000 m
#270000
0!
0&
#275000
1!
1&
1-
b1 .
b100 g
#280000
0!
0&
#285000
1!
0#
1&
0(
18
b1 :
b100 g
#290000
0!
0&
#295000
1!
1&
1,
13
14
19
b100 g
#300000
0!
0&
#305000
1!
1&
b10 *
b100 g
#310000
0!
0&
#315000
1!
1&
b11 *
0-
b100 i
#320000
0!
0&
#325000
1!
1&
b100 *
08
#330000
0!
0&
#335000
1!
1&
b1 *
b1 +
0,
03
09
#340000
0!
0&
#345000
1!
1&
1-
b100000000 1
b100 g
#350000
0!
0&
#355000
1!
1&
18
b100 g
#360000
0!
0&
#365000
1!
1&
1,
b1000000000 2
13
19
b100 g
#370000
0!
0&
#375000
1!
1&
b10 *
b100 g
#380000
0!
0&
#385000
1!
1&
b11 *
0-
b100 i
#390000
0!
0&
#395000
1!
1&
b100 *
08
#400000
0!
0&
#405000
1!
1&
b1 *
b10 +
0,
03
09
#410000
0!
0&
#415000
1!
1&
1-
b1000000000 1
b100 g
#420000
0!
0&
#425000
1!
1&
18
b100 g
#430000
0!
0&
#435000
1!
1&
1,
b1100000000 2
13
19
b100 g
#440000
0!
0&
#445000
1!
1&
b10 *
b100 g
#450000
0!
0&
#455000
1!
1&
b11 *
0-
b100 i
#460000
0!
0&
#465000
1!
1&
b100 *
08
#470000
0!
0&
#475000
1!
1&
b1 *
b11 +
0,
03
09
#480000
0!
0&
#485000
1!
1&
1-
b1100000000 1
b100 g
#490000
0!
0&
#495000
1!
1&
18
b100 g
#500000
0!
0&
#505000
1!
1&
1,
b10000000000 2
13
19
b100 g
#510000
0!
0&
#515000
1!
1&
b10 *
b100 g
#520000
0!
0&
#525000
1!
1&
b11 *
0-
b100 i
#530000
0!
0&
#535000
1!
1&
b100 *
08
#540000
0!
0&
#545000
1!
1&
b1 *
b100 +
0,
03
09
#550000
0!
0&
#555000
1!
1&
1-
b10000000000 1
b100 g
#560000
0!
0&
#565000
1!
1&
18
b100 g
#570000
0!
0&
#575000
1!
1&
1,
b10100000000 2
13
19
b100 g
#580000
0!
0&
#585000
1!
1&
b10 *
b100 g
#590000
0!
0&
#595000
1!
1&
b11 *
0-
b100 i
#600000
0!
0&
#605000
1!
1&
b100 *
08
#610000
0!
0&
#615000
1!
1&
b1 *
b101 +
0,
03
09
#620000
0!
0&
#625000
1!
1&
1-
b10100000000 1
b100 g
#630000
0!
0&
#635000
1!
1&
18
b100 g
#640000
0!
0&
#645000
1!
1&
1,
b11000000000 2
13
19
b100 g
#650000
0!
0&
#655000
1!
1&
b10 *
b100 g
#660000
0!
0&
#665000
1!
1&
b11 *
0-
b100 i
#670000
0!
0&
#675000
1!
1&
b100 *
08
#680000
0!
0&
#685000
1!
1&
b1 *
b110 +
0,
03
09
#690000
0!
0&
#695000
1!
1&
1-
b11000000000 1
b100 g
#700000
0!
0&
#705000
1!
1&
18
b100 g
#710000
0!
0&
#715000
1!
1&
1,
b11100000000 2
13
19
b100 g
#720000
0!
0&
#725000
1!
1&
b10 *
b100 g
#730000
0!
0&
#735000
1!
1&
b11 *
0-
b100 i
#740000
0!
0&
#745000
1!
1&
b100 *
08
#750000
0!
0&
#755000
1!
1&
b1 *
b111 +
0,
03
09
#760000
0!
0&
#765000
1!
1&
1-
b11100000000 1
b100 g
#770000
0!
0&
#775000
1!
1&
18
b100 g
#780000
0!
0&
#785000
1!
1&
1,
b100000000000 2
13
19
b100 g
#790000
0!
0&
#795000
1!
1&
b10 *
b100 g
#800000
0!
0&
#805000
1!
1&
b11 *
0-
b100 i
#810000
0!
0&
#815000
1!
1&
b100 *
08
#820000
0!
0&
#825000
1!
1&
b1 *
b1000 +
0,
03
09
#830000
0!
0&
#835000
1!
1&
1-
b100000000000 1
b100 g
#840000
0!
0&
#845000
1!
1&
18
b100 g
#850000
0!
0&
#855000
1!
1&
1,
b100100000000 2
13
19
b100 g
#860000
0!
0&
#865000
1!
1&
b10 *
b100 g
#870000
0!
0&
#875000
1!
1&
b11 *
0-
b100 i
#880000
0!
0&
#885000
1!
1&
b100 *
08
#890000
0!
0&
#895000
1!
1&
b1 *
b1001 +
0,
03
09
#900000
0!
0&
#905000
1!
1&
1-
b100100000000 1
b100 g
#910000
0!
0&
#915000
1!
1&
18
b100 g
#920000
0!
0&
#925000
1!
1&
1,
b101000000000 2
13
19
b100 g
#930000
0!
0&
#935000
1!
1&
b10 *
b100 g
#940000
0!
0&
#945000
1!
1&
b11 *
0-
b100 i
#950000
0!
0&
#955000
1!
1&
b100 *
08
#960000
0!
0&
#965000
1!
1&
b1 *
b1010 +
0,
03
09
#970000
0!
0&
#975000
1!
1&
1-
b101000000000 1
b100 g
#980000
0!
0&
#985000
1!
1&
18
b100 g
#990000
0!
0&
#995000
1!
1&
1,
b101100000000 2
13
19
b100 g
#1000000
0!
0&
#1005000
1!
1&
b10 *
b100 g
#1010000
0!
0&
#1015000
1!
1&
b11 *
0-
b100 i
#1020000
0!
0&
#1025000
1!
1&
b100 *
08
#1030000
0!
0&
#1035000
1!
1&
b1 *
b1011 +
0,
03
09
#1040000
0!
0&
#1045000
1!
1&
1-
b101100000000 1
b100 g
#1050000
0!
0&
#1055000
1!
1&
18
b100 g
#1060000
0!
0&
#1065000
1!
1&
1,
b110000000000 2
13
19
b100 g
#1070000
0!
0&
#1075000
1!
1&
b10 *
b100 g
#1080000
0!
0&
#1085000
1!
1&
b11 *
0-
b100 i
#1090000
0!
0&
#1095000
1!
1&
b100 *
08
#1100000
0!
0&
#1105000
1!
1&
b1 *
b1100 +
0,
03
09
#1110000
0!
0&
#1115000
1!
1&
1-
b110000000000 1
b100 g
#1120000
0!
0&
#1125000
1!
1&
18
b100 g
#1130000
0!
0&
#1135000
1!
1&
1,
b110100000000 2
13
19
b100 g
#1140000
0!
0&
#1145000
1!
1&
b10 *
b100 g
#1150000
0!
0&
#1155000
1!
1&
b11 *
0-
b100 i
#1160000
0!
0&
#1165000
1!
1&
b100 *
08
#1170000
0!
0&
#1175000
1!
1&
b1 *
b1101 +
0,
03
09
#1180000
0!
0&
#1185000
1!
1&
1-
b110100000000 1
b100 g
#1190000
0!
0&
#1195000
1!
1&
18
b100 g
#1200000
0!
0&
#1205000
1!
1&
1,
b111000000000 2
13
19
b100 g
#1210000
0!
0&
#1215000
1!
1&
b10 *
b100 g
#1220000
0!
0&
#1225000
1!
1&
b11 *
0-
b100 i
#1230000
0!
0&
#1235000
1!
1&
b100 *
08
#1240000
0!
0&
#1245000
1!
1&
b1 *
b1110 +
0,
03
09
#1250000
0!
0&
#1255000
1!
1&
1-
b111000000000 1
b100 g
#1260000
0!
0&
#1265000
1!
1&
18
b100 g
#1270000
0!
0&
#1275000
1!
1&
1,
b111100000000 2
13
19
b100 g
#1280000
0!
0&
#1285000
1!
1&
b10 *
b100 g
#1290000
0!
0&
#1295000
1!
1&
b11 *
0-
b100 i
#1300000
0!
0&
#1305000
1!
1&
b100 *
08
#1310000
0!
0&
#1315000
1!
1&
b1 *
b1111 +
0,
03
09
#1320000
0!
0&
#1325000
1!
1&
1-
b111100000000 1
b100 g
#1330000
0!
0&
#1335000
1!
1&
18
b100 g
#1340000
0!
0&
#1345000
1!
1&
1,
b1000000000000 2
13
19
b100 g
#1350000
0!
0&
#1355000
1!
1&
b10 *
b100 g
#1360000
0!
0&
#1365000
1!
1&
b11 *
0-
b100 i
#1370000
0!
0&
#1375000
1!
1&
b100 *
08
#1380000
0!
0&
#1385000
1!
1&
b101 *
b10000 +
0,
03
09
#1390000
0!
0&
#1395000
1!
1%
1&
b0 *
b10000 k
#1400000
0!
0&
#1405000
1!
1&
#1410000
0!
0&
#1415000
1!
1#
b1 $
0%
1&
1(
b1 )
b1 *
b0 +
b10000 n
#1420000
0!
0&
#1425000
1!
1&
b10 *
1-
b10 .
1;
b10 <
1I
b10 J
1W
b10 X
b100 h
#1430000
0!
0&
#1435000
1!
0#
1&
0(
b11 *
0-
b100000000000000 5
18
b10 :
0;
b100000000000000 C
1F
b10 H
0I
b100000000000000 Q
1T
b10 V
0W
b100000000000000 _
1b
b10 d
b100 i
#1440000
0!
0&
#1445000
1!
1&
1,
b1000000 2
13
04
08
19
b1000000 @
1A
0F
1G
b1000000 N
1O
0T
1U
b1000000 \
1]
0b
1c
#1450000
0!
0&
#1455000
1!
1&
b100 *
0,
03
09
0A
0G
0O
0U
0]
0c
#1460000
0!
0&
#1465000
1!
1&
b1 *
b100 +
b100 j
#1470000
0!
0&
#1475000
1!
1&
b10 *
1-
1;
1I
1W
b100 h
#1480000
0!
0&
#1485000
1!
1&
b11 *
0-
18
0;
1F
0I
1T
0W
1b
b100 i
#1490000
0!
0&
#1495000
1!
1&
1,
13
08
19
1A
0F
1G
1O
0T
1U
1]
0b
1c
#1500000
0!
0&
#1505000
1!
1&
b100 *
0,
03
09
0A
0G
0O
0U
0]
0c
#1510000
0!
0&
#1515000
1!
1&
b1 *
b1000 +
b100 j
#1520000
0!
0&
#1525000
1!
1&
b10 *
1-
1;
1I
1W
b100 h
#1530000
0!
0&
#1535000
1!
1&
b11 *
0-
18
0;
1F
0I
1T
0W
1b
b100 i
#1540000
0!
0&
#1545000
1!
1&
1,
13
08
19
1A
0F
1G
1O
0T
1U
1]
0b
1c
#1550000
0!
0&
#1555000
1!
1&
b100 *
0,
03
09
0A
0G
0O
0U
0]
0c
#1560000
0!
0&
#1565000
1!
1&
b1 *
b1100 +
b100 j
#1570000
0!
0&
#1575000
1!
1&
b10 *
1-
1;
1I
1W
b100 h
#1580000
0!
0&
#1585000
1!
1&
b11 *
0-
18
0;
1F
0I
1T
0W
1b
b100 i
#1590000
0!
0&
#1595000
1!
1&
1,
13
08
19
1A
0F
1G
1O
0T
1U
1]
0b
1c
#1600000
0!
0&
#1605000
1!
1&
b100 *
0,
03
09
0A
0G
0O
0U
0]
0c
#1610000
0!
0&
#1615000
1!
1&
b101 *
b10000 +
b100 j
#1620000
0!
0&
#1625000
1!
1%
1&
b0 *
b10000 k
#1630000
0!
0&
#1635000
1!
1&
#1640000
0!
0&
#1645000
1!
1#
b10 $
0%
1&
1(
b10 )
b1 *
b0 +
#1650000
0!
0&
#1655000
1!
1&
b10 *
1-
b11 .
1;
b11 <
1I
b11 J
1W
b11 X
b100 h
#1660000
0!
0&
#1665000
1!
0#
1&
0(
b11 *
0-
b0 5
18
b11 :
0;
b0 C
1F
b11 H
0I
b0 Q
1T
b11 V
0W
b0 _
1b
b11 d
b100 i
#1670000
0!
0&
#1675000
1!
1&
1,
b100000000 2
13
08
19
b100000000 @
1A
0F
1G
b100000000 N
1O
0T
1U
b100000000 \
1]
0b
1c
#1680000
0!
0&
#1685000
1!
1&
b100 *
0,
03
09
0A
0G
0O
0U
0]
0c
#1690000
0!
0&
#1695000
1!
1&
b1 *
b100 +
b100 j
#1700000
0!
0&
#1705000
1!
1&
b10 *
1-
1;
1I
1W
b100 h
#1710000
0!
0&
#1715000
1!
1&
b11 *
0-
18
0;
1F
0I
1T
0W
1b
b100 i
#1720000
0!
0&
#1725000
1!
1&
1,
13
08
19
1A
0F
1G
1O
0T
1U
1]
0b
1c
#1730000
0!
0&
#1735000
1!
1&
b100 *
0,
03
09
0A
0G
0O
0U
0]
0c
#1740000
0!
0&
#1745000
1!
1&
b1 *
b1000 +
b100 j
#1750000
0!
0&
#1755000
1!
1&
b10 *
1-
1;
1I
1W
b100 h
#1760000
0!
0&
#1765000
1!
1&
b11 *
0-
18
0;
1F
0I
1T
0W
1b
b100 i
#1770000
0!
0&
#1775000
1!
1&
1,
13
08
19
1A
0F
1G
1O
0T
1U
1]
0b
1c
#1780000
0!
0&
#1785000
1!
1&
b100 *
0,
03
09
0A
0G
0O
0U
0]
0c
#1790000
0!
0&
#1795000
1!
1&
b1 *
b1100 +
b100 j
#1800000
0!
0&
#1805000
1!
1&
b10 *
1-
1;
1I
1W
b100 h
#1810000
0!
0&
#1815000
1!
1&
b11 *
0-
18
0;
1F
0I
1T
0W
1b
b100 i
#1820000
0!
0&
#1825000
1!
1&
1,
13
08
19
1A
0F
1G
1O
0T
1U
1]
0b
1c
#1830000
0!
0&
#1835000
1!
1&
b100 *
0,
03
09
0A
0G
0O
0U
0]
0c
#1840000
0!
0&
#1845000
1!
1&
b101 *
b10000 +
b100 j
#1850000
0!
0&
#1855000
1!
1%
1&
b0 *
b10000 k
